Image/photo1_1.jpg
Image/photo1_2.jpg
Image/photo1_3.jpg
TexteComplet.txt
cmusphinx-fr-ptm-8khz-5.2/README
cmusphinx-fr-ptm-8khz-5.2/feat.params
cmusphinx-fr-ptm-8khz-5.2/mdef
cmusphinx-fr-ptm-8khz-5.2/means
cmusphinx-fr-ptm-8khz-5.2/mixture_weights
cmusphinx-fr-ptm-8khz-5.2/noisedict
cmusphinx-fr-ptm-8khz-5.2/sendump
cmusphinx-fr-ptm-8khz-5.2/transition_matrices
cmusphinx-fr-ptm-8khz-5.2/variances
fr.dict